{
  "attackGoal": {
    "file": ["2", "integrity", "pc", "/home/doe/Desktop/salaries.xlsx"]
  },
  "vertices": {
    "externalActor": [["internet"]],
    "vulnerableAsset": [
      ["pc", "windows_8_1_microsoft_None", "cVE-2017-0263", "local", "privEscalation"],
      ["pc", "microsoft_office_2016", "cVE-2017-0262", "local", "gainUserPrivileges"]
    ],
    "inNetwork": [["pc", "network"]],
    "installed": [
      ["pc", "microsoft_office_2016"],
      ["pc", "windows_8_1_microsoft_None"]
    ],
    "softwareOpensFiles": [["pc", "microsoft_office_2016"]],
    "mailOnWeb": [["john Doe", "jdoe_domain.cz"]],
    "hasAccount": [["john Doe", "jdoe", "pc", "_"]],
    "userCanClick": [["john Doe"]],

    "dataBackup": [["pc", "false"]],
    "strongPasswordPolicy": [["false"]],
    "multifactorAuthentication": [["false"]],
    "softwareUpdate": [["false"]],
    "homoglyphDetection": [["false"]],
    "urlAnalysis": [["false"]],
    "senderMTAReputationAnalysis": [["false"]],
    "senderReputationAnalysis": [["false"]],
    "userTraining": [["false"]],
    "accountLocking": [["true"]],
    "inboundTrafficFiltering": [["network", "true"]]
  }
}