{
  "PROPERTY": {
    "installed": ["hostname", "app_name"],
    "vulnerableAsset": ["hostname", "app_name", "*vulID", "vector", "impact"],
    "accessAllowed": ["sourceIPv4Address", "hostname", "protocol", "port"],
    "networkService": ["hostname", "*serviceName", "protocol", "port", "*username"],
    "hasAccount": ["*identity", "account", "hostname", "*application"],
    "defaultAccount": ["account", "hostname", "*application"],
    "softwareOpensFiles": ["hostname", "software"],
    "mailOnWeb": ["person", "mail"],
    "userCanClick": ["user"],
    "inNetwork": ["hostname", "exercise_segment"],
    "setuid": ["hostname", "software"],
    "setgid": ["hostname", "software"]
  },
  "COUNTERMEASURE": {
    "dataBackup": ["hostname", "bool"],
    "encryptedDisk": ["hostname", "bool"],
    "strongPasswordPolicy": ["bool"],
    "multifactorAuthentication": ["bool"],
    "softwareUpdate": ["bool"],
    "homoglyphDetection": ["bool"],
    "urlAnalysis": ["bool"],
    "senderMTAReputationAnalysis": ["bool"],
    "senderReputationAnalysis": ["bool"],
    "userTraining": ["bool"],
    "accountLocking": ["bool"],
    "inboundTrafficFiltering": ["exercise_segment", "bool"]
  },
  "LEVEL": {
    "externalActor": ["position"],
    "system": ["level", "property", "hostname", "user"],
    "networkConnection": ["level", "property", "hostname", "protocol", "port"],
    "account": ["level", "property", "username", "identity", "hostname", "application"],
    "application": ["level", "property", "hostname", "app_name"],
    "openFile": ["level", "property", "hostname"],
    "file": ["level", "property", "hostname", "filename"],
    "sentEmail": ["level", "property", "address", "identity"]
  },
  "TECHNIQUE": {
    "networkConnection": [{
      "resultVectorAttributes": ["2", "authentication", "Hostname", "Protocol", "Port"],
      "conditions": [
        {"externalActor": ["internet"]},
        {"accessAllowed": ["internet", "Hostname", "Protocol", "Port"]},
        {"networkService": ["Hostname", "_", "Protocol", "Port", "_"]}
      ],
      "id": "T1595",
      "name": "Active Scanning"
    }, {
      "resultVectorAttributes": ["2", "authentication", "Hostname", "Protocol", "Port"],
      "conditions": [
        {"externalActor": ["H2"]},
        {"accessAllowed": ["H2", "Hostname", "Protocol", "Port"]},
        {"networkService": ["Hostname", "_", "Protocol", "Port", "_"]},
        {"inNetwork": ["H2", "Network"]},
        {"inNetwork": ["Hostname", "Network"]}
      ],
      "id": "T1046",
      "name": "Network Service Scanning"
    }, {
      "resultVectorAttributes": ["2", "authentication", "Host2", "Protocol", "Port"],
      "conditions": [
        {"accessAllowed": ["Host1", "Host2", "Protocol", "Port"]},
        {"system":  ["1", "_", "Host2", "_"]},
        {"system": ["2", "authorization", "Host1", "root"]},
        {"networkService": ["Host2", "Software", "Protocol", "Port", "_"]}
      ],
      "id": "T1563",
      "name": "Remote Service Session Hijacking"
    }, {
      "resultVectorAttributes": ["2", "authentication", "Host2", "Protocol", "Port"],
      "conditions": [
        {"accessAllowed": ["Host1", "Host2", "Protocol", "Port"]},
        {"system": ["1", "_", "Host2", "_"]},
        {"account": ["2", "authentication", "root", "_", "Host1", "_"]},
        {"networkService": ["Host2", "Software", "Protocol", "Port", "_"]}
      ],
      "id": "T1563",
      "name": "Remote Service Session Hijacking"
    }],
    "account": [{
      "resultVectorAttributes": ["2", "authentication", "User", "_", "H", "Software"],
      "conditions": [
        {"networkConnection": ["2", "authentication", "H", "Protocol", "Port"]},
        {"networkService": ["H", "Software", "Protocol", "Port", "_"]},
        {"hasAccount": ["_", "User", "H", "Software"]},
        {"strongPasswordPolicy": ["false"]},
        {"multifactorAuthentication": ["false"]}
      ],
      "id": "T1110",
      "name": "Brute Force"
    }, {
      "resultVectorAttributes": ["2", "authentication", "User", "_", "Host", "_"],
      "conditions": [
        {"defaultAccount": ["User", "Host", "ssh"]},
        {"hasAccount": ["_", "User", "Host", "_"]},
        {"networkConnection": ["2", "authentication", "Host", "_", "_"]}
      ],
      "id": "T1078.001",
      "name": "Default Accounts"
    }, {
      "resultVectorAttributes": ["2", "authentication", "User", "_", "Host", "_"],
      "conditions": [
        {"hasAccount": ["_", "User", "Host", "_"]},
        {"networkConnection": ["2", "authentication", "Host", "_", "_"]},
        {"strongPasswordPolicy": ["false"]}
      ],
      "id": "T1078",
      "name": "Valid Accounts"
    }],
    "application": [{
      "resultVectorAttributes": ["2", "authentication", "Hostname", "App_name"],
      "conditions": [
        {"account": ["2", "authentication", "User", "Victim", "Hostname", "App_name"]}
      ],
      "id": "T1078",
      "name": "Valid Accounts"
    }, {
      "resultVectorAttributes": ["2", "confidentiality", "H", "Software"],
      "conditions": [
        {"vulnerableAsset": ["H", "Software", "_", "remote", "gainPrivOnApp"]},
        {"networkService": ["H", "Software", "Protocol", "Port", "_"]},
        {"networkConnection": ["2", "authentication", "H", "Protocol", "Port"]}
      ],
      "id": "T1190",
      "name": "Exploit Public-Facing Application"
    }, {
      "resultVectorAttributes": ["2", "integrity", "H", "Software"],
      "conditions": [
        {"vulnerableAsset": ["H", "Software", "_", "remote", "gainPrivOnApp"]},
        {"networkService": ["H", "Software", "Protocol", "Port", "_"]},
        {"networkConnection": ["2", "authentication", "H", "Protocol", "Port"]}
      ],
      "id": "T1190",
      "name": "Exploit Public-Facing Application"
    }, {
      "resultVectorAttributes": ["2", "confidentiality", "H", "Software"],
      "conditions": [
        {"vulnerableAsset": ["H", "Software", "_", "remote", "appConfidentialityLoss"]},
        {"networkService": ["H", "Software", "Protocol", "Port", "_"]},
        {"networkConnection": ["2", "authentication", "H", "Protocol", "Port"]}
      ],
      "id": "T1190",
      "name": "Exploit Public-Facing Application"
    }, {
      "resultVectorAttributes": ["2", "integrity", "H", "Software"],
      "conditions": [
        {"vulnerableAsset": ["H", "Software", "_", "remote", "appIntegrityLoss"]},
        {"networkService": ["H", "Software", "Protocol", "Port", "_"]},
        {"networkConnection": ["2", "authentication", "H", "Protocol", "Port"]}
      ],
      "id": "T1190",
      "name": "Exploit Public-Facing Application"
    }, {
      "resultVectorAttributes": ["2", "confidentiality", "H", "_"],
      "conditions": [
        {"vulnerableAsset": ["H", "Software", "_", "remote", "systemConfidentialityLoss"]},
        {"networkService": ["H", "Software", "Protocol", "Port", "_"]},
        {"networkConnection": ["2", "authentication", "H", "Protocol", "Port"]}
      ],
      "id": "T1190",
      "name": "Exploit Public-Facing Application"
    }, {
      "resultVectorAttributes": ["2", "integrity", "H", "_"],
      "conditions": [
        {"vulnerableAsset": ["H", "Software", "_", "remote", "systemIntegrityLoss"]},
        {"networkService": ["H", "Software", "Protocol", "Port", "_"]},
        {"networkConnection": ["2", "authentication", "H", "Protocol", "Port"]}
      ],
      "id": "T1190",
      "name": "Exploit Public-Facing Application"
    }, {
      "resultVectorAttributes": ["2", "authorization", "H", "Software"],
      "conditions": [
        {"vulnerableAsset": ["H", "Software", "_", "_", "gainPrivOnApp"]},
        {"installed": ["H", "Software"]},
        {"account": ["2", "authentication", "User", "Victim", "H", "_"]}
      ],
      "id": "T1203",
      "name": "Exploitation for Client Execution"
    }, {
      "resultVectorAttributes": ["2", "authentication", "Host", "Software"],
      "conditions": [
        {"account": ["2", "authentication", "User", "Victim", "Host", "Software"]},
        {"system": ["1", "_", "Host", "_"]},
        {"networkService": ["Host", "Software", "Protocol", "Port", "_"]}
      ],
      "id": "T1021",
      "name": "Remote Services"
    }, {
      "resultVectorAttributes": ["2", "availability", "Host", "Software"],
      "conditions": [
        {"vulnerableAsset": ["Host", "Software", "_", "remote", "appAvailabilityLoss"]},
        {"networkService": ["Host", "Software", "Protocol", "Port", "_"]},
        {"networkConnection": ["2", "authentication", "Host", "Protocol", "Port"]}
      ],
      "id": "T1499.004",
      "name": "Endpoint DoS - Application or System Exploitation"
    }, {
      "resultVectorAttributes": ["2", "availability", "Host", "Software"],
      "conditions": [
        {"system": ["2", "authorization", "Host", "root"]}
      ],
      "id": "T1489",
      "name": "Service Stop"
    }, {
      "resultVectorAttributes": ["2", "authorization", "H", "Software"],
      "conditions": [
        {"vulnerableAsset": ["H", "Software", "_", "remote", "gainPrivOnApp"]},
        {"networkService": ["H", "Software", "Protocol", "Port", "_"]},
        {"networkConnection": ["2", "authentication", "H", "Protocol", "Port"]}
      ],
      "id": "T1212",
      "name": "Exploitation for Credential Access"
    }, {
      "resultVectorAttributes": ["2", "availability", "Host", "Software"],
      "conditions": [
        {"networkService": ["Host", "Software", "Protocol", "Port", "_"]},
        {"networkConnection": ["2", "authentication", "Host", "Protocol", "Port"]},
        {"inboundTrafficFiltering": ["Network", "false"]},
        {"inNetwork": ["Host", "Network"]}
      ],
      "id": "T1499.004",
      "name": "Endpoint DoS - Service Exhaustion Flood"
    }],
    "system": [{
      "resultVectorAttributes": ["2", "authentication", "Hostname", "_"],
      "conditions": [
        {"externalActor": ["internet"]},
        {"networkConnection": ["2", "authentication", "Hostname", "Protocol", "Port"]}
      ],
      "id": "T1133",
      "name": "External Remote Services"
    }, {
      "resultVectorAttributes": ["2", "authentication", "Hostname", "_"],
      "conditions": [
        {"application": ["2", "authentication", "Hostname", "ssh"]}
      ],
      "id": "T1021",
      "name": "Remote Services"
    }, {
      "resultVectorAttributes": ["2", "authorization", "Hostname", "user"],
      "conditions": [
        {"vulnerableAsset": ["Hostname", "Software", "_", "_", "gainUserPrivileges"]},
        {"installed": ["Hostname", "Software"]},
        {"openFile": ["2", "authentication", "Hostname"]},
        {"softwareOpensFiles": ["Hostname", "Software"]}
      ],
      "id": "T1203",
      "name": "Exploitation for Client Execution"
    }, {
      "resultVectorAttributes": ["2", "authorization", "H", "root"],
      "conditions": [
        {"vulnerableAsset": ["H", "Software", "_", "_", "gainRootPrivileges"]},
        {"installed": ["H", "Software"]},
        {"account": ["2", "authentication", "User", "Victim", "H", "_"]}
      ],
      "id": "T1203",
      "name": "Exploitation for Client Execution"
    }, {
      "resultVectorAttributes": ["2", "authorization", "H", "root"],
      "conditions": [
        {"system": ["2", "authorization", "H", "Username"]},
        {"installed": ["H", "Software"]},
        {"vulnerableAsset": ["H", "Software", "_", "Range", "privEscalation"]},
        {"softwareUpdate": ["false"]}
      ],
      "id": "T1068",
      "name": "Exploitation for Privilege Escalation"
    }, {
      "resultVectorAttributes": ["2", "authorization", "H", "root"],
      "conditions": [
        {"account": ["2", "authentication", "Username", "_", "H", "_"]},
        {"installed": ["H", "Software"]},
        {"vulnerableAsset": ["H", "Software", "_", "Range", "privEscalation"]},
        {"softwareUpdate": ["false"]}
      ],
      "id": "T1068",
      "name": "Exploitation for Privilege Escalation"
    }, {
      "resultVectorAttributes": ["2", "availability", "Host", "_"],
      "conditions": [
        {"vulnerableAsset": ["Host", "Software", "_", "remote", "systemAvailabilityLoss"]},
        {"networkService": ["Host", "Software", "Protocol", "Port", "_"]},
        {"networkConnection": ["2", "authentication", "Host", "Protocol", "Port"]}
      ],
      "id": "T1499.004",
      "name": "Endpoint DoS - Application or System Exploitation"
    }, {
      "resultVectorAttributes": ["2", "availability", "Host", "_"],
      "conditions": [
        {"networkConnection": ["2", "authentication", "Host", "Protocol", "Port"]},
        {"inNetwork": ["Host", "N"]},
        {"inboundTrafficFiltering": ["N", "false"]}
      ],
      "id": "T1498",
      "name": "Network denial service"
    }, {
      "resultVectorAttributes": ["2", "authorization", "Host", "root"],
      "conditions": [
        {"application": ["2", "authentication", "Host", "Software"]},
        {"setuid": ["Host", "Software"]},
        {"system": ["2", "authorization", "Host", "user"]}
      ],
      "id": "T1548.001",
      "name": "Abuse Elevation Control Mechanism: Setuid and Setgid"
    }, {
      "resultVectorAttributes": ["2", "authorization", "Host", "root"],
      "conditions": [
        {"application": ["2", "authentication", "Host", "Software"]},
        {"setgid": ["Host", "Software"]},
        {"system": ["2", "authorization", "Host", "user"]}
      ],
      "id": "T1548.001",
      "name": "Abuse Elevation Control Mechanism: Setuid and Setgid"
    }],
    "file": [{
      "resultVectorAttributes": ["1", "_", "Hostname", "_"],
      "conditions": [
        {"system": ["2", "authentication", "Hostname", "_"]}
      ],
      "id": "T1083",
      "name": "File and Directory Discovery"
    }, {
      "resultVectorAttributes": ["1", "_", "Hostname", "_"],
      "conditions": [
        {"system": ["2", "authorization", "Hostname", "_"]}
      ],
      "id": "T1083",
      "name": "File and Directory Discovery"
    }, {
      "resultVectorAttributes": ["2", "confidentiality", "Hostname", "_"],
      "conditions": [
        {"file": ["1", "_", "Hostname", "_"]},
        {"system": ["2", "authentication", "Hostname", "_"]}
      ],
      "id": "T1005",
      "name": "Data from Local System"
    }, {
      "resultVectorAttributes": ["2", "confidentiality", "Hostname", "_"],
      "conditions": [
        {"file": ["1", "_", "Hostname", "_"]},
        {"system": ["2", "authorization", "Hostname", "_"]}
      ],
      "id": "T1005",
      "name": "Data from Local System"
    }, {
      "resultVectorAttributes": ["2", "integrity", "Hostname", "_"],
      "conditions": [
        {"system": ["2", "authorization", "Hostname", "root"]},
        {"dataBackup": ["Hostname", "false"]}
      ],
      "id": "T1486",
      "name": "Data Encrypted for Impact"
    }, {
      "resultVectorAttributes": ["2", "availability", "Hostname", "_"],
      "conditions": [
        {"system": ["2", "authorization", "Hostname", "root"]},
        {"dataBackup": ["Hostname", "false"]}
      ],
      "id": "T1486",
      "name": "Data Encrypted for Impact"
    }, {
      "resultVectorAttributes": ["2", "integrity", "Hostname", "_"],
      "conditions": [
        {"system": ["2", "authorization", "Hostname", "root"]},
        {"dataBackup": ["Hostname", "false"]}
      ],
      "id": "T1485",
      "name": "Data Destruction"
    }, {
      "resultVectorAttributes": ["2", "availability", "Hostname", "_"],
      "conditions": [
        {"system": ["2", "authorization", "Hostname", "root"]},
        {"dataBackup": ["Hostname", "false"]}
      ],
      "id": "T1485",
      "name": "Data Destruction"
    }, {
      "resultVectorAttributes": ["2", "integrity", "Host", "_"],
      "conditions": [
        {"system": ["2", "authorization", "Host", "_"]},
        {"encryptedDisk": ["Host", "false"]}
      ],
      "id": "T1565.001",
      "name": "Data Manipulation - Stored Data Manipulation"
    }, {
      "resultVectorAttributes": ["2", "availability", "Host", "_"],
      "conditions": [
        {"system": ["2", "authorization", "Host", "_"]},
        {"encryptedDisk": ["Host", "false"]}
      ],
      "id": "T1565.001",
      "name": "Data Manipulation - Stored Data Manipulation"
    }, {
      "resultVectorAttributes": ["2", "availability", "Host", "_"],
      "conditions": [
        {"system": ["2", "authorization", "Host", "_"]}
      ],
      "id": "T1070.004",
      "name": "File Deletion"
    }],
    "sentEmail": [{
      "resultVectorAttributes": ["1", "_", "MailAddress", "Victim"],
      "conditions": [
        {"mailOnWeb": ["Victim", "MailAddress"]},
        {"externalActor": ["internet"]}
      ],
      "id": "T1594",
      "name": "Search Victim-Owned Websites"
    }, {
      "resultVectorAttributes": ["2", "authentication", "MailAddress", "Person"],
      "conditions": [
        {"sentEmail": ["1", "_", "MailAddress", "Person"]},
        {"homoglyphDetection": ["false"]},
        {"urlAnalysis": ["false"]},
        {"senderMTAReputationAnalysis": ["false"]},
        {"senderReputationAnalysis": ["false"]}
      ],
      "id": "T1566.001",
      "name": "Spearphishing Attachment"
    }],
    "openFile": [{
      "resultVectorAttributes": ["2", "authentication", "Hostname"],
      "conditions": [
        {"sentEmail": ["2", "authentication", "MailAddress", "Victim"]},
        {"userCanClick": ["Victim"]},
        {"hasAccount": ["Victim", "Username", "Hostname", "_"]},
        {"userTraining": ["false"]}
      ],
      "id": "T1204.002",
      "name": "User Execution - Malicious File"
    }]
  }
}
